id,color,price,creationDate,quantity,capacity,height,weight
1,white,95,27/07/2020,4,200,3,35
2,black,93,27/07/2020,2,200,3,35
3,white,92,27/07/2020,3,250,1.5,35
4,grey,91,27/07/2020,1,180,1.5,35
5,black,90,27/07/2020,0,200,3,35